<?xml version="1.0" encoding="utf-8"?>
<!-- Generator: Adobe Illustrator 18.1.0, SVG Export Plug-In . SVG Version: 6.00 Build 0)  -->
<!DOCTYPE svg PUBLIC "-//W3C//DTD SVG 1.1//EN" "http://www.w3.org/Graphics/SVG/1.1/DTD/svg11.dtd">
<svg version="1.1" xmlns="http://www.w3.org/2000/svg" xmlns:xlink="http://www.w3.org/1999/xlink" x="0px" y="0px" width="30px"
	 height="30px" viewBox="0 0 30 30" enable-background="new 0 0 30 30" xml:space="preserve">
<g id="Layer_1">
</g>
<g id="content">
	<path fill="#00AFDF" d="M0,0v30h30V0H0z"/>
	<polygon fill="#FFFFFF" points="13.4,21.7 6.9,20.8 6.9,15.4 13.4,15.4 	"/>
	<polygon fill="#FFFFFF" points="13.4,14.6 6.9,14.6 6.9,9.2 13.4,8.3 	"/>
	<polygon fill="#FFFFFF" points="23.1,23.1 14.3,21.8 14.3,15.4 23.1,15.4 	"/>
	<polygon fill="#FFFFFF" points="23.1,14.6 14.3,14.6 14.3,8.2 23.1,6.9 	"/>
</g>
</svg>
