<?xml version="1.0" encoding="utf-8"?>
<!-- Generator: Adobe Illustrator 17.1.0, SVG Export Plug-In . SVG Version: 6.00 Build 0)  -->
<!DOCTYPE svg PUBLIC "-//W3C//DTD SVG 1.1//EN" "http://www.w3.org/Graphics/SVG/1.1/DTD/svg11.dtd">
<svg version="1.1" id="Layer_1" xmlns="http://www.w3.org/2000/svg" xmlns:xlink="http://www.w3.org/1999/xlink" x="0px" y="0px"
	 viewBox="0 0 28 28" enable-background="new 0 0 28 28" xml:space="preserve">
<path fill="#FFFFFF" d="M6.8,9.3c0.3,0,0.6,0,0.9,0.1c1-1.2,2.2-2.2,3.5-3.2c-0.1-0.2-0.1-0.5-0.1-0.7c0-0.3,0.1-0.6,0.2-0.9
	c-1.4-1-2.9-1.9-4.6-2.5C5.1,3,3.8,4.3,2.7,5.7c0.8,1.4,1.7,2.7,2.8,3.9C5.9,9.4,6.3,9.3,6.8,9.3z M3.8,12.3c0-0.4,0.1-0.8,0.2-1.2
	c-1-1-1.8-2.2-2.6-3.4C0.5,9.6,0,11.7,0,14c0,2.6,0.7,5.1,2,7.2c0.4-2.5,1.3-4.9,2.5-7.1C4.1,13.6,3.8,13,3.8,12.3z M14.1,2.6
	c0.8,0,1.5,0.3,2,0.8c1.6-0.7,3.2-1.2,4.9-1.5C18.9,0.7,16.5,0,14,0c-1.7,0-3.4,0.3-4.9,0.9c1.2,0.6,2.4,1.3,3.5,2.1
	C13,2.7,13.5,2.6,14.1,2.6z M18.5,16.6c0.2-0.4,0.4-0.7,0.8-1c-0.9-2.7-2.3-5.2-4.1-7.3c-0.4,0.2-0.8,0.2-1.2,0.2
	c-0.6,0-1.2-0.2-1.7-0.6c-1.1,0.8-2.1,1.7-3,2.7c0.3,0.5,0.4,1,0.4,1.6c0,0.3,0,0.6-0.1,0.9C12.3,14.9,15.3,16.1,18.5,16.6z
	 M22.4,20.6c0,0.6,0.1,1.1,0.1,1.7c0,1-0.1,2-0.2,3c2.4-1.7,4.2-4.2,5.1-7.1c-1.1,0.3-2.2,0.4-3.3,0.6
	C23.8,19.6,23.2,20.3,22.4,20.6z M17.8,18.6c-3.5-0.6-6.7-1.9-9.4-3.8c-0.5,0.3-1,0.4-1.6,0.4c-0.2,0-0.4,0-0.6-0.1
	c-1.3,2.5-2.2,5.4-2.4,8.3c1.3,1.4,3,2.6,4.8,3.4C10.8,23.4,14,20.5,17.8,18.6z M23.4,3.6C21.2,3.8,19,4.4,17,5.2c0,0.1,0,0.2,0,0.3
	c0,0.5-0.1,0.9-0.3,1.3c2,2.3,3.5,5.1,4.5,8.1c1.2,0,2.2,0.8,2.7,1.8c1.3-0.1,2.7-0.4,3.9-0.8c0.1-0.6,0.1-1.3,0.1-2
	C28,9.9,26.2,6.2,23.4,3.6z M19.3,20.2c-3.6,1.7-6.5,4.2-8.7,7.4c1.1,0.3,2.2,0.4,3.4,0.4c2.1,0,4.1-0.5,5.9-1.3
	c0.3-1.4,0.4-2.9,0.4-4.4c0-0.5,0-1.1-0.1-1.6C19.9,20.6,19.6,20.4,19.3,20.2z"/>
</svg>
