<?xml version="1.0" encoding="utf-8"?>
<!-- Generator: Adobe Illustrator 17.1.0, SVG Export Plug-In . SVG Version: 6.00 Build 0)  -->
<!DOCTYPE svg PUBLIC "-//W3C//DTD SVG 1.1//EN" "http://www.w3.org/Graphics/SVG/1.1/DTD/svg11.dtd">
<svg version="1.1" id="Layer_1" xmlns="http://www.w3.org/2000/svg" xmlns:xlink="http://www.w3.org/1999/xlink" x="0px" y="0px"
	 viewBox="0 0 21 22" enable-background="new 0 0 21 22" xml:space="preserve">
<path fill="#FFFFFF" d="M19.3,0.2H1.7C1,0.2,0.4,0.8,0.4,1.5V14c0,0.7,0.3,1.3,0.9,1.7l9.2,6.2l9.2-6.2c0.6-0.4,0.9-1,0.9-1.7V1.5
	C20.6,0.8,20,0.2,19.3,0.2z"/>
</svg>
