<?xml version="1.0" encoding="utf-8"?>
<!-- Generator: Adobe Illustrator 17.1.0, SVG Export Plug-In . SVG Version: 6.00 Build 0)  -->
<!DOCTYPE svg PUBLIC "-//W3C//DTD SVG 1.1//EN" "http://www.w3.org/Graphics/SVG/1.1/DTD/svg11.dtd">
<svg version="1.1" id="Layer_1" xmlns="http://www.w3.org/2000/svg" xmlns:xlink="http://www.w3.org/1999/xlink" x="0px" y="0px"
	 viewBox="0 0 22 22" enable-background="new 0 0 22 22" xml:space="preserve">
<g>
	<g>
		<path fill="#FFFFFF" d="M0.2,5.6h5.4V0.2H0.2V5.6z M8.3,5.6h5.4V0.2H8.3V5.6z M16.4,0.2v5.4h5.4V0.2H16.4z M0.2,13.7h5.4V8.3H0.2
			V13.7z M8.3,13.7h5.4V8.3H8.3V13.7z M16.4,13.7h5.4V8.3h-5.4V13.7z M0.2,21.8h5.4v-5.4H0.2V21.8z M8.3,21.8h5.4v-5.4H8.3V21.8z
			 M16.4,21.8h5.4v-5.4h-5.4V21.8z"/>
	</g>
</g>
</svg>
