<?xml version="1.0" encoding="utf-8"?>
<!-- Generator: Adobe Illustrator 17.1.0, SVG Export Plug-In . SVG Version: 6.00 Build 0)  -->
<!DOCTYPE svg PUBLIC "-//W3C//DTD SVG 1.1//EN" "http://www.w3.org/Graphics/SVG/1.1/DTD/svg11.dtd">
<svg version="1.1" id="Layer_1" xmlns="http://www.w3.org/2000/svg" xmlns:xlink="http://www.w3.org/1999/xlink" x="0px" y="0px"
	 viewBox="0 0 14 18" enable-background="new 0 0 14 18" xml:space="preserve">
<g>
	<g>
		<path fill="#FFFFFF" d="M0,18l7-4.8l7,4.8V4.8H0V18z M0,0v2.9h14V0H0z"/>
	</g>
</g>
</svg>
