<?xml version="1.0" encoding="utf-8"?>
<!-- Generator: Adobe Illustrator 18.1.0, SVG Export Plug-In . SVG Version: 6.00 Build 0)  -->
<svg version="1.1" id="Layer_1" xmlns="http://www.w3.org/2000/svg" xmlns:xlink="http://www.w3.org/1999/xlink" x="0px" y="0px"
	 viewBox="0 0 16 16" style="enable-background:new 0 0 16 16;" xml:space="preserve">
<g>
	<g>
		<path style="fill:#00ACD1;" d="M5,8.2C5.4,5.9,7.2,4,9.5,3.6C8.6,2.7,7,2.2,5.2,2.2c-2.8,0-5.1,1.4-5.1,3C0.1,6.8,2.3,8.2,5,8.2z"
			/>
		<path style="fill:#00ACD1;" d="M5.2,11.9c-2.1,0-3.9-0.7-5-1.7c-0.1,0.2-0.1,0.4-0.1,0.5c0,1.7,2.3,3,5.1,3c0.5,0,0.9-0.1,1.4-0.1
			c-0.5-0.5-0.9-1.1-1.2-1.7C5.4,11.9,5.3,11.9,5.2,11.9z"/>
		<circle style="fill:#00ACD1;" cx="10.9" cy="9.5" r="5"/>
		<path style="fill:#00ACD1;" d="M5.1,11C5,10.5,4.9,10,4.9,9.5c0-0.1,0-0.1,0-0.2c0,0,0-0.1,0-0.1c-2-0.1-3.7-0.7-4.7-1.7
			C0.2,7.6,0.1,7.8,0.1,8C0.1,9.6,2.4,11,5.1,11z"/>
	</g>
	<circle style="opacity:0.25;fill:none;stroke:#FFFFFF;stroke-miterlimit:10;" cx="10.9" cy="9.5" r="3.1"/>
	<path style="opacity:0.25;fill:none;stroke:#FFFFFF;stroke-width:0.9149;stroke-miterlimit:10;" d="M7.9,4.2
		C7.3,3.7,6.4,3.4,5.4,3.4c-1.6,0-3,0.8-3,1.6c0,0.9,1.3,1.6,3.1,1.6"/>
</g>
</svg>
